"id","capital","capital_es","citizenship","citizenship_es","country_code","currency","currency_code","currency_sub_unit","currency_symbol","full_name","iso_3166_2","iso_3166_3","name","name_es","region_code","sub_region_code","eea","calling_code","flag"
4,"Kabuli ","Kabul","Afghan","Afgano/a","004","afghani","AFN","pul","؋","Islamic Republic of Afghanistan","AF","AFG","Afghanistan","Afganistán","142","034",0,"93","AF.png"
8,"Tirana","Tirana","Albanian","Albanés","008","lek","ALL","(qindar (pl. qindarka))","Lek","Republic of Albania","AL","ALB","Albania","Albania","150","039",0,"355","AL.png"
10,"Antartica","---","of Antartica","Antártico/a","010","","","","","Antarctica","AQ","ATA","Antarctica","Antartida","","",0,"672","AQ.png"
12,"Algiers","Argel","Algerian","Argelino/a","012","Algerian dinar","DZD","centime","DZD","People’s Democratic Republic of Algeria","DZ","DZA","Algeria","Argelia","002","015",0,"213","DZ.png"
16,"Pago Pago","Pago Pago","American Samoan","Samoano/a","016","US dollar","USD","cent","$","Territory of American","AS","ASM","American Samoa","Samoa Americana","009","061",0,"1","AS.png"
20,"Andorra la Vella","Andorra la Vella","Andorran","Andorrano","020","euro","EUR","cent","€","Principality of Andorra","AD","AND","Andorra","Andorra","150","039",0,"376","AD.png"
24,"Luanda","Luanda","Angolan","Angoleño/a","024","kwanza","AOA","cêntimo","Kz","Republic of Angola","AO","AGO","Angola","Angola","002","017",0,"244","AO.png"
28,"St John’s","Saint John's","of Antigua and Barbuda","Antiguano/a","028","East Caribbean dollar","XCD","cent","$","Antigua and Barbuda","AG","ATG","Antigua and Barbuda","Antigua y Barbuda","019","029",0,"1","AG.png"
31,"Baku","Bakú","Azerbaijani","Azerí","031","Azerbaijani manat","AZN","kepik (inv.)","ман","Republic of Azerbaijan","AZ","AZE","Azerbaijan","Azerbaiyán","142","145",0,"994","AZ.png"
32,"Buenos Aires","Buenos Aires","Argentinian","Argentino/a","032","Argentine peso","ARS","centavo","$","Argentine Republic","AR","ARG","Argentina","Argentina","019","005",0,"54","AR.png"
36,"Canberra","Canberra","Australian","Australiano/a","036","Australian dollar","AUD","cent","$","Commonwealth of Australia","AU","AUS","Australia","Australia","009","053",0,"61","AU.png"
40,"Vienna","Viena","Austrian","Austriaco/a","040","euro","EUR","cent","€","Republic of Austria","AT","AUT","Austria","Austria","150","155",1,"43","AT.png"
44,"Nassau","Nassau","Bahamian","Bahamés","044","Bahamian dollar","BSD","cent","$","Commonwealth of the Bahamas","BS","BHS","Bahamas","Bahamas","019","029",0,"1","BS.png"
48,"Manama","Manama","Bahraini","Bareiní","048","Bahraini dinar","BHD","fils (inv.)","BHD","Kingdom of Bahrain","BH","BHR","Bahrain","Baréin","142","145",0,"973","BH.png"
50,"Dhaka","Dacca","Bangladeshi","Bengalí","050","taka (inv.)","BDT","poisha (inv.)","BDT","People’s Republic of Bangladesh","BD","BGD","Bangladesh","Bangladesh","142","034",0,"880","BD.png"
51,"Yerevan","Ereván","Armenian","Armenio","051","dram (inv.)","AMD","luma","AMD","Republic of Armenia","AM","ARM","Armenia","Armenia","142","145",0,"374","AM.png"
52,"Bridgetown","Bridgetown","Barbadian","Barbandense","052","Barbados dollar","BBD","cent","$","Barbados","BB","BRB","Barbados","Barbados","019","029",0,"1","BB.png"
56,"Brussels","Bruselas","Belgian","Belga","056","euro","EUR","cent","€","Kingdom of Belgium","BE","BEL","Belgium","Bélgica","150","155",1,"32","BE.png"
60,"Hamilton","Hamilton","Bermudian","Bermudeño/a","060","Bermuda dollar","BMD","cent","$","Bermuda","BM","BMU","Bermuda","Bermudas","019","021",0,"1","BM.png"
64,"Thimphu","Thimbu","Bhutanese","Butanés/a","064","ngultrum (inv.)","BTN","chhetrum (inv.)","BTN","Kingdom of Bhutan","BT","BTN","Bhutan","Bután","142","034",0,"975","BT.png"
68,"Sucre (BO1)","Sucre (La Paz)","Bolivian","Boliviano/a","068","boliviano","BOB","centavo","$b","Plurinational State of Bolivia","BO","BOL","Bolivia, Plurinational State of","Bolivia","019","005",0,"591","BO.png"
70,"Sarajevo","Sarajevo","of Bosnia and Herzegovina","Bosnio","070","convertible mark","BAM","fening","KM","Bosnia and Herzegovina","BA","BIH","Bosnia and Herzegovina","Bosnia-Herzegovina","150","039",0,"387","BA.png"
72,"Gaborone","Gaborone","Botswanan","Botswanés","072","pula (inv.)","BWP","thebe (inv.)","P","Republic of Botswana","BW","BWA","Botswana","Botswana","002","018",0,"267","BW.png"
74,"Bouvet island","","of Bouvet island","","074","","","","kr","Bouvet Island","BV","BVT","Bouvet Island","","","",0,"47","BV.png"
76,"Brasilia","Brasilia","Brazilian","Brasileño/a","076","real (pl. reais)","BRL","centavo","R$","Federative Republic of Brazil","BR","BRA","Brazil","Brasil","019","005",0,"55","BR.png"
84,"Belmopan","Belmopan","Belizean","Beliceño/a","084","Belize dollar","BZD","cent","BZ$","Belize","BZ","BLZ","Belize","Belice","019","013",0,"501","BZ.png"
86,"Diego Garcia","Diego García","Changosian","Chaguense","086","US dollar","USD","cent","$","British Indian Ocean Territory","IO","IOT","British Indian Ocean Territory","Territorio Británico del Océano Índico","","",0,"246","IO.png"
90,"Honiara","Honiara","Solomon Islander","Salomonense","090","Solomon Islands dollar","SBD","cent","$","Solomon Islands","SB","SLB","Solomon Islands","Islas Salomón","009","054",0,"677","SB.png"
92,"Road Town","Road Town","British Virgin Islander;","De Islas Vírgenes británicas","092","US dollar","USD","cent","$","British Virgin Islands","VG","VGB","Virgin Islands, British","Islas Vírgenes Británicas","019","029",0,"1","VG.png"
96,"Bandar Seri Begawan","Bandarseri Begawan","Bruneian","Bruneano/a","096","Brunei dollar","BND","sen (inv.)","$","Brunei Darussalam","BN","BRN","Brunei Darussalam","Brunei","142","035",0,"673","BN.png"
100,"Sofia","Sofía","Bulgarian","Búlgaro/a","100","lev (pl. leva)","BGN","stotinka","лв","Republic of Bulgaria","BG","BGR","Bulgaria","Bulgaria","150","151",1,"359","BG.png"
104,"Yangon","Yangón","Burmese","Birmano/a","104","kyat","MMK","pya","K","Union of Myanmar/","MM","MMR","Myanmar","Myanmar","142","035",0,"95","MM.png"
108,"Bujumbura","Buyumbura","Burundian","Burundiano/a","108","Burundi franc","BIF","centime","BIF","Republic of Burundi","BI","BDI","Burundi","Burundi","002","014",0,"257","BI.png"
112,"Minsk","Minsk","Belarusian","Bielorruso/a","112","Belarusian rouble","BYR","kopek","p.","Republic of Belarus","BY","BLR","Belarus","Bielorrusia","150","151",0,"375","BY.png"
116,"Phnom Penh","Phnom-Pehn","Cambodian","Camboyano/a","116","riel","KHR","sen (inv.)","៛","Kingdom of Cambodia","KH","KHM","Cambodia","Camboya","142","035",0,"855","KH.png"
120,"Yaoundé","Yaundé","Cameroonian","Camerunés","120","CFA franc (BEAC)","XAF","centime","FCF","Republic of Cameroon","CM","CMR","Cameroon","Camerún","002","017",0,"237","CM.png"
124,"Ottawa","Ottawa","Canadian","Canadiense","124","Canadian dollar","CAD","cent","$","Canada","CA","CAN","Canada","Canadá","019","021",0,"1","CA.png"
132,"Praia","Praia","Cape Verdean","Caboverdiano","132","Cape Verde escudo","CVE","centavo","CVE","Republic of Cape Verde","CV","CPV","Cape Verde","Cabo Verde","002","011",0,"238","CV.png"
136,"George Town","Georgetown","Caymanian","Caimanés","136","Cayman Islands dollar","KYD","cent","$","Cayman Islands","KY","CYM","Cayman Islands","Islas Caimán","019","029",0,"1","KY.png"
140,"Bangui","Bangui","Central African","Centroafricano/a","140","CFA franc (BEAC)","XAF","centime","CFA","Central African Republic","CF","CAF","Central African Republic","República Centroafricana","002","017",0,"236","CF.png"
144,"Colombo","Sri Jayawardenapura Kotte","Sri Lankan","Srilanqués/sa","144","Sri Lankan rupee","LKR","cent","₨","Democratic Socialist Republic of Sri Lanka","LK","LKA","Sri Lanka","Sri Lanka","142","034",0,"94","LK.png"
148,"N’Djamena","N'Djamena","Chadian","Chadiano/a","148","CFA franc (BEAC)","XAF","centime","XAF","Republic of Chad","TD","TCD","Chad","Chad","002","017",0,"235","TD.png"
152,"Santiago","Santiago","Chilean","Chileno/a","152","Chilean peso","CLP","centavo","CLP","Republic of Chile","CL","CHL","Chile","Chile","019","005",0,"56","CL.png"
156,"Beijing","Pekín","Chinese","Chino/a","156","renminbi-yuan (inv.)","CNY","jiao (10)","¥","People’s Republic of China","CN","CHN","China","China","142","030",0,"86","CN.png"
158,"Taipei","Taipéi","Taiwanese","Taiwanés/esa","158","new Taiwan dollar","TWD","fen (inv.)","NT$","Republic of China, Taiwan (TW1)","TW","TWN","Taiwan, Province of China","Taiwán, (República Popular China)","142","030",0,"886","TW.png"
162,"Flying Fish Cove","Flying Fish Cove","Christmas Islander","Navideño/a​​","162","Australian dollar","AUD","cent","$","Christmas Island Territory","CX","CXR","Christmas Island","Isla de Navidad","","",0,"61","CX.png"
166,"Bantam","West Island","Cocos Islander","Cocano/a​","166","Australian dollar","AUD","cent","$","Territory of Cocos (Keeling) Islands","CC","CCK","Cocos (Keeling) Islands","Islas Cocos","","",0,"61","CC.png"
170,"Santa Fe de Bogotá","Bogotá (Santa Fe de Bogotá)","Colombian","Colombiano/a","170","Colombian peso","COP","centavo","$","Republic of Colombia","CO","COL","Colombia","Colombia","019","005",0,"57","CO.png"
174,"Moroni","Moroni","Comorian","Comorano/a","174","Comorian franc","KMF","","KMF","Union of the Comoros","KM","COM","Comoros","Comores","002","014",0,"269","KM.png"
175,"Mamoudzou","Mamoudzou","Mahorais","Mayotés/esa","175","euro","EUR","cent","€","Departmental Collectivity of Mayotte","YT","MYT","Mayotte","Mayotte","002","014",0,"262","YT.png"
178,"Brazzaville","Brazzaville","Congolese","Congolés","178","CFA franc (BEAC)","XAF","centime","FCF","Republic of the Congo","CG","COG","Congo","Congo","002","017",0,"242","CG.png"
180,"Kinshasa","Kinshasa","Congolese","Zaireño/a","180","Congolese franc","CDF","centime","CDF","Democratic Republic of the Congo","CD","COD","Congo, the Democratic Republic of the","República Democrática del Congo","002","017",0,"243","CD.png"
184,"Avarua","Avarua","Cook Islander","Cookiano/a","184","New Zealand dollar","NZD","cent","$","Cook Islands","CK","COK","Cook Islands","Islas Cook","009","061",0,"682","CK.png"
188,"San José","San José","Costa Rican","Costarricense","188","Costa Rican colón (pl. colones)","CRC","céntimo","₡","Republic of Costa Rica","CR","CRI","Costa Rica","Costa Rica","019","013",0,"506","CR.png"
191,"Zagreb","Zagreb","Croatian","Croata","191","kuna (inv.)","HRK","lipa (inv.)","kn","Republic of Croatia","HR","HRV","Croatia","Croacia","150","039",1,"385","HR.png"
192,"Havana","La Habana","Cuban","Cubano/a","192","Cuban peso","CUP","centavo","₱","Republic of Cuba","CU","CUB","Cuba","Cuba","019","029",0,"53","CU.png"
196,"Nicosia","Nicosia","Cypriot","Chipriota","196","euro","EUR","cent","CYP","Republic of Cyprus","CY","CYP","Cyprus","Chipre","142","145",1,"357","CY.png"
203,"Prague","Praga","Czech","Checo/a","203","Czech koruna (pl. koruny)","CZK","halér","Kč","Czech Republic","CZ","CZE","Czech Republic","República Checa","150","151",1,"420","CZ.png"
204,"Porto Novo (BJ1)","Porto-Novo","Beninese","Beninés","204","CFA franc (BCEAO)","XOF","centime","XOF","Republic of Benin","BJ","BEN","Benin","Benín","002","011",0,"229","BJ.png"
208,"Copenhagen","Copenhague","Danish","Danés/esa","208","Danish krone","DKK","øre (inv.)","kr","Kingdom of Denmark","DK","DNK","Denmark","Dinamarca","150","154",1,"45","DK.png"
212,"Roseau","Roseau","Dominican","Dominiqués/esa","212","East Caribbean dollar","XCD","cent","$","Commonwealth of Dominica","DM","DMA","Dominica","Dominica","019","029",0,"1","DM.png"
214,"Santo Domingo","Santo Domingo","Dominican","Dominicano/a","214","Dominican peso","DOP","centavo","RD$","Dominican Republic","DO","DOM","Dominican Republic","República Dominicana","019","029",0,"1","DO.png"
218,"Quito","Quito","Ecuadorian","Ecuatoriano/a","218","US dollar","USD","cent","$","Republic of Ecuador","EC","ECU","Ecuador","Ecuador","019","005",0,"593","EC.png"
222,"San Salvador","San Salvador","Salvadoran","Salvadoreño/a","222","Salvadorian colón (pl. colones)","SVC","centavo","$","Republic of El Salvador","SV","SLV","El Salvador","El Salvador","019","013",0,"503","SV.png"
226,"Malabo","Malabo","Equatorial Guinean","Ecuatoguineano/a","226","CFA franc (BEAC)","XAF","centime","FCF","Republic of Equatorial Guinea","GQ","GNQ","Equatorial Guinea","Guinea Ecuatorial","002","017",0,"240","GQ.png"
231,"Addis Ababa","Addis Abeba","Ethiopian","Etíope","231","birr (inv.)","ETB","cent","ETB","Federal Democratic Republic of Ethiopia","ET","ETH","Ethiopia","Etiopía","002","014",0,"251","ET.png"
232,"Asmara","Asmara","Eritrean","Eritreo/a","232","nakfa","ERN","cent","Nfk","State of Eritrea","ER","ERI","Eritrea","Eritrea","002","014",0,"291","ER.png"
233,"Tallinn","Tallin","Estonian","Estonio","233","euro","EUR","cent","kr","Republic of Estonia","EE","EST","Estonia","Estonia","150","154",1,"372","EE.png"
234,"Tórshavn","Tórshavn","Faeroese","Feroés/esa","234","Danish krone","DKK","øre (inv.)","kr","Faeroe Islands","FO","FRO","Faroe Islands","Islas Feroe","150","154",0,"298","FO.png"
238,"Stanley","Puerto Argentino/Stanley","Falkland Islander","Malvinense","238","Falkland Islands pound","FKP","new penny","£","Falkland Islands","FK","FLK","Falkland Islands (Malvinas)","Islas Malvinas","019","005",0,"500","FK.png"
239,"King Edward Point (Grytviken)","Base King Edward Point","of South Georgia and the South Sandwich Islands","Surgeorgiano/a","239","","","","£","South Georgia and the South Sandwich Islands","GS","SGS","South Georgia and the South Sandwich Islands","Islas Georgias del Sur y Sandwich del Sur","","",0,"44","GS.png"
242,"Suva","Suva","Fijian","Fiyiano/a","242","Fiji dollar","FJD","cent","$","Republic of Fiji","FJ","FJI","Fiji","Fiji","009","054",0,"679","FJ.png"
246,"Helsinki","Helsinki","Finnish","Finlandés/esa","246","euro","EUR","cent","€","Republic of Finland","FI","FIN","Finland","Finlandia","150","154",1,"358","FI.png"
248,"Mariehamn","Mariehamn","Åland Islander","Alandés","248","euro","EUR","cent","","Åland Islands","AX","ALA","Åland Islands","Islas Aland","150","154",0,"358",""
250,"Paris","París","French","Francés/esa","250","euro","EUR","cent","€","French Republic","FR","FRA","France","Francia","150","155",1,"33","FR.png"
254,"Cayenne","Cayena","Guianese","Guayanés","254","euro","EUR","cent","€","French Guiana","GF","GUF","French Guiana","Guayana Francesa","019","005",0,"594","GF.png"
258,"Papeete","Papeete","Polynesian","Francopolinesio/a","258","CFP franc","XPF","centime","XPF","French Polynesia","PF","PYF","French Polynesia","Polinesia Francesa","009","061",0,"689","PF.png"
260,"Port-aux-Francais","","of French Southern and Antarctic Lands","","260","euro","EUR","cent","€","French Southern and Antarctic Lands","TF","ATF","French Southern Territories","","","",0,"33","TF.png"
262,"Djibouti","Yibutí","Djiboutian","Yibutiano/a","262","Djibouti franc","DJF","","DJF","Republic of Djibouti","DJ","DJI","Djibouti","Djibouti o Yibuti","002","014",0,"253","DJ.png"
266,"Libreville","Libreville","Gabonese","Gabonés","266","CFA franc (BEAC)","XAF","centime","FCF","Gabonese Republic","GA","GAB","Gabon","Gabón","002","017",0,"241","GA.png"
268,"Tbilisi","Tiflis","Georgian","Georgiano/a","268","lari","GEL","tetri (inv.)","GEL","Georgia","GE","GEO","Georgia","Georgia","142","145",0,"995","GE.png"
270,"Banjul","Banjul","Gambian","Gambiense","270","dalasi (inv.)","GMD","butut","D","Republic of the Gambia","GM","GMB","Gambia","Gambia","002","011",0,"220","GM.png"
275,"","","Palestinian","","275","","","","₪","","PS","PSE","Palestinian Territory, Occupied","","142","145",0,"970","PS.png"
276,"Berlin","Berlín","German","Alemán/a","276","euro","EUR","cent","€","Federal Republic of Germany","DE","DEU","Germany","Alemania","150","155",1,"49","DE.png"
288,"Accra","Accra","Ghanaian","Ghanés","288","Ghana cedi","GHS","pesewa","¢","Republic of Ghana","GH","GHA","Ghana","Ghana","002","011",0,"233","GH.png"
292,"Gibraltar","Gibraltar","Gibraltarian","Gibraltareño/a","292","Gibraltar pound","GIP","penny","£","Gibraltar","GI","GIB","Gibraltar","Gibraltar","150","039",0,"350","GI.png"
296,"Tarawa","Tarawa","Kiribatian","Kiribatense","296","Australian dollar","AUD","cent","$","Republic of Kiribati","KI","KIR","Kiribati","Kiribati","009","057",0,"686","KI.png"
300,"Athens","Atenas","Greek","Griego/a","300","euro","EUR","cent","€","Hellenic Republic","GR","GRC","Greece","Grecia","150","039",1,"30","GR.png"
304,"Nuuk","Nuuk","Greenlander","Groenlandés/sa","304","Danish krone","DKK","øre (inv.)","kr","Greenland","GL","GRL","Greenland","Groenlandia","019","021",0,"299","GL.png"
308,"St George’s","Saint Georgeís","Grenadian","Granadino/a","308","East Caribbean dollar","XCD","cent","$","Grenada","GD","GRD","Grenada","Granada","019","029",0,"1","GD.png"
312,"Basse Terre","Basse-Terre","Guadeloupean","Guadalupeño/a","312","euro","EUR ","cent","€","Guadeloupe","GP","GLP","Guadeloupe","Guadalupe","019","029",0,"590","GP.png"
316,"Agaña (Hagåtña)","Agaña","Guamanian","Guameñoa","316","US dollar","USD","cent","$","Territory of Guam","GU","GUM","Guam","Guam","009","057",0,"1","GU.png"
320,"Guatemala City","Ciudad de Guatemala","Guatemalan","Guatemalteco/a","320","quetzal (pl. quetzales)","GTQ","centavo","Q","Republic of Guatemala","GT","GTM","Guatemala","Guatemala","019","013",0,"502","GT.png"
324,"Conakry","Conakry","Guinean","Guineano/a","324","Guinean franc","GNF","","GNF","Republic of Guinea","GN","GIN","Guinea","Guinea","002","011",0,"224","GN.png"
328,"Georgetown","Georgetown","Guyanese","Guyanés","328","Guyana dollar","GYD","cent","$","Cooperative Republic of Guyana","GY","GUY","Guyana","Guyana","019","005",0,"592","GY.png"
332,"Port-au-Prince","Puerto Príncipe","Haitian","Haitiano/a","332","gourde","HTG","centime","G","Republic of Haiti","HT","HTI","Haiti","Haití","019","029",0,"509","HT.png"
334,"Territory of Heard Island and McDonald Islands","","of Territory of Heard Island and McDonald Islands","","334","","","","$","Territory of Heard Island and McDonald Islands","HM","HMD","Heard Island and McDonald Islands","","","",0,"61","HM.png"
336,"Vatican City","Vaticano","of the Holy See/of the Vatican","Vaticano","336","euro","EUR","cent","€","the Holy See/ Vatican City State","VA","VAT","Holy See (Vatican City State)","Santa Sede","150","039",0,"39","VA.png"
340,"Tegucigalpa","Tegucigalpa","Honduran","Hondureño/a","340","lempira","HNL","centavo","L","Republic of Honduras","HN","HND","Honduras","Honduras","019","013",0,"504","HN.png"
344,"(HK3)","Ciudad Victoria","Hong Kong Chinese","Hongkonés","344","Hong Kong dollar","HKD","cent","$","Hong Kong Special Administrative Region of the People’s Republic of China (HK2)","HK","HKG","Hong Kong","Hong Kong","142","030",0,"852","HK.png"
348,"Budapest","Budapest","Hungarian","Húngaro/a","348","forint (inv.)","HUF","(fillér (inv.))","Ft","Republic of Hungary","HU","HUN","Hungary","Hungría","150","151",1,"36","HU.png"
352,"Reykjavik","Reykjavik","Icelander","Islandés/esa","352","króna (pl. krónur)","ISK","","kr","Republic of Iceland","IS","ISL","Iceland","Islandia","150","154",0,"354","IS.png"
356,"New Delhi","Nueva Delhi","Indian","Indio/a","356","Indian rupee","INR","paisa","₹","Republic of India","IN","IND","India","India","142","034",0,"91","IN.png"
360,"Jakarta","Yakarta","Indonesian","Indonesio","360","Indonesian rupiah (inv.)","IDR","sen (inv.)","Rp","Republic of Indonesia","ID","IDN","Indonesia","Indonesia","142","035",0,"62","ID.png"
364,"Tehran","Teherán","Iranian","Iraní","364","Iranian rial","IRR","(dinar) (IR1)","﷼","Islamic Republic of Iran","IR","IRN","Iran, Islamic Republic of","Irán","142","034",0,"98","IR.png"
368,"Baghdad","Bagdad","Iraqi","Iraquí","368","Iraqi dinar","IQD","fils (inv.)","IQD","Republic of Iraq","IQ","IRQ","Iraq","Irak","142","145",0,"964","IQ.png"
372,"Dublin","Dublín","Irish","Irlandés/ esa","372","euro","EUR","cent","€","Ireland (IE1)","IE","IRL","Ireland","Irlanda","150","154",1,"353","IE.png"
376,"(IL1)","Jerusalén","Israeli","Israelí","376","shekel","ILS","agora","₪","State of Israel","IL","ISR","Israel","Israel","142","145",0,"972","IL.png"
380,"Rome","Roma","Italian","Italiano/a","380","euro","EUR","cent","€","Italian Republic","IT","ITA","Italy","Italia","150","039",1,"39","IT.png"
384,"Yamoussoukro (CI1)","Yamoussoukro","Ivorian","Marfileño/a","384","CFA franc (BCEAO)","XOF","centime","XOF","Republic of Côte d’Ivoire","CI","CIV","Côte d'Ivoire","Costa de Marfil","002","011",0,"225","CI.png"
388,"Kingston","Kingston","Jamaican","Jamaicano/a","388","Jamaica dollar","JMD","cent","$","Jamaica","JM","JAM","Jamaica","Jamaica","019","029",0,"1","JM.png"
392,"Tokyo","Tokio","Japanese","Japonés/a","392","yen (inv.)","JPY","(sen (inv.)) (JP1)","¥","Japan","JP","JPN","Japan","Japón","142","030",0,"81","JP.png"
398,"Astana","Astana","Kazakh","Kazajo","398","tenge (inv.)","KZT","tiyn","лв","Republic of Kazakhstan","KZ","KAZ","Kazakhstan","Kazajstán","142","143",0,"7","KZ.png"
400,"Amman","Amán","Jordanian","Jordano/a","400","Jordanian dinar","JOD","100 qirsh","JOD","Hashemite Kingdom of Jordan","JO","JOR","Jordan","Jordania","142","145",0,"962","JO.png"
404,"Nairobi","Nairobi","Kenyan","Keniata","404","Kenyan shilling","KES","cent","KES","Republic of Kenya","KE","KEN","Kenya","Kenia","002","014",0,"254","KE.png"
408,"Pyongyang","Pyongyang","North Korean","(nor)coreano/a","408","North Korean won (inv.)","KPW","chun (inv.)","₩","Democratic People’s Republic of Korea","KP","PRK","Korea, Democratic People's Republic of","Corea del Norte","142","030",0,"850","KP.png"
410,"Seoul","Seúl","South Korean","(sur)coreano/a","410","South Korean won (inv.)","KRW","(chun (inv.))","₩","Republic of Korea","KR","KOR","Korea, Republic of","Corea del Sur","142","030",0,"82","KR.png"
414,"Kuwait City","Kuwait","Kuwaiti","Kuwaití","414","Kuwaiti dinar","KWD","fils (inv.)","KWD","State of Kuwait","KW","KWT","Kuwait","Kuwait","142","145",0,"965","KW.png"
417,"Bishkek","Bishkek","Kyrgyz","Kirguiz","417","som","KGS","tyiyn","лв","Kyrgyz Republic","KG","KGZ","Kyrgyzstan","Kirguizistán","142","143",0,"996","KG.png"
418,"Vientiane","Vientiane","Lao","Laosiano/a","418","kip (inv.)","LAK","(at (inv.))","₭","Lao People’s Democratic Republic","LA","LAO","Lao People's Democratic Republic","Laos","142","035",0,"856","LA.png"
422,"Beirut","Beirut","Lebanese","Libanés/esa","422","Lebanese pound","LBP","(piastre)","£","Lebanese Republic","LB","LBN","Lebanon","Líbano","142","145",0,"961","LB.png"
426,"Maseru","Maseru","Basotho","Lesotense","426","loti (pl. maloti)","LSL","sente","L","Kingdom of Lesotho","LS","LSO","Lesotho","Lesoto","002","018",0,"266","LS.png"
428,"Riga","Riga","Latvian","Letón/ona","428","euro","EUR","cent","Ls","Republic of Latvia","LV","LVA","Latvia","Letonia","150","154",1,"371","LV.png"
430,"Monrovia","Monrovia","Liberian","Liberiano/a","430","Liberian dollar","LRD","cent","$","Republic of Liberia","LR","LBR","Liberia","Liberia","002","011",0,"231","LR.png"
434,"Tripoli","Trípoli","Libyan","Libio","434","Libyan dinar","LYD","dirham","LYD","Socialist People’s Libyan Arab Jamahiriya","LY","LBY","Libya","Libia","002","015",0,"218","LY.png"
438,"Vaduz","Vaduz","Liechtensteiner","Liechtensteiniano/a","438","Swiss franc","CHF","centime","CHF","Principality of Liechtenstein","LI","LIE","Liechtenstein","Liechtenstein","150","155",0,"423","LI.png"
440,"Vilnius","Vilna","Lithuanian","Lituano/a","440","euro","EUR","cent","Lt","Republic of Lithuania","LT","LTU","Lithuania","Lituania","150","154",1,"370","LT.png"
442,"Luxembourg","Luxemburgo","Luxembourger","Luxemburgués/a","442","euro","EUR","cent","€","Grand Duchy of Luxembourg","LU","LUX","Luxembourg","Luxemburgo","150","155",1,"352","LU.png"
446,"Macao (MO3)","Ciudad de Macao","Macanese","Macaense","446","pataca","MOP","avo","MOP","Macao Special Administrative Region of the People’s Republic of China (MO2)","MO","MAC","Macao","Macao","142","030",0,"853","MO.png"
450,"Antananarivo","Antananarivo","Malagasy","Malgache","450","ariary","MGA","iraimbilanja (inv.)","MGA","Republic of Madagascar","MG","MDG","Madagascar","Madagascar","002","014",0,"261","MG.png"
454,"Lilongwe","Lilongwe","Malawian","Malawiano/a","454","Malawian kwacha (inv.)","MWK","tambala (inv.)","MK","Republic of Malawi","MW","MWI","Malawi","Malawi","002","014",0,"265","MW.png"
458,"Kuala Lumpur (MY1)","Kuala Lumpur","Malaysian","Malayo/a","458","ringgit (inv.)","MYR","sen (inv.)","RM","Malaysia","MY","MYS","Malaysia","Malasia","142","035",0,"60","MY.png"
462,"Malé","Malé","Maldivian","Maldivo/a","462","rufiyaa","MVR","laari (inv.)","Rf","Republic of Maldives","MV","MDV","Maldives","Maldivas","142","034",0,"960","MV.png"
466,"Bamako","Bamako","Malian","Malí","466","CFA franc (BCEAO)","XOF","centime","XOF","Republic of Mali","ML","MLI","Mali","Malí","002","011",0,"223","ML.png"
470,"Valletta","La Valletta","Maltese","Maltés/esa","470","euro","EUR","cent","MTL","Republic of Malta","MT","MLT","Malta","Malta","150","039",1,"356","MT.png"
474,"Fort-de-France","Fort-de- France","Martinican","Martiniqués","474","euro","EUR","cent","€","Martinique","MQ","MTQ","Martinique","Martinica","019","029",0,"596","MQ.png"
478,"Nouakchott","Nuakchott","Mauritanian","Mauritano","478","ouguiya","MRO","khoum","UM","Islamic Republic of Mauritania","MR","MRT","Mauritania","Mauritania","002","011",0,"222","MR.png"
480,"Port Louis","Port Louis","Mauritian","Mauriciano","480","Mauritian rupee","MUR","cent","₨","Republic of Mauritius","MU","MUS","Mauritius","Mauricio","002","014",0,"230","MU.png"
484,"Mexico City","Ciudad de México","Mexican","Mexicano/a","484","Mexican peso","MXN","centavo","$","United Mexican States","MX","MEX","Mexico","México","019","013",0,"52","MX.png"
492,"Monaco","Mónaco-Ville","Monegasque","Monegasco/a","492","euro","EUR","cent","€","Principality of Monaco","MC","MCO","Monaco","Mónaco","150","155",0,"377","MC.png"
496,"Ulan Bator","Ulan Bator","Mongolian","Mongol","496","tugrik","MNT","möngö (inv.)","₮","Mongolia","MN","MNG","Mongolia","Mongolia","142","030",0,"976","MN.png"
498,"Chisinau","Chisinau","Moldovan","Moldavo","498","Moldovan leu (pl. lei)","MDL","ban","MDL","Republic of Moldova","MD","MDA","Moldova, Republic of","Moldova","150","151",0,"373","MD.png"
499,"Podgorica","Podgorica y Cetiña ","Montenegrin","Montenegrino/a","499","euro","EUR","cent","€","Montenegro","ME","MNE","Montenegro","Montenegro","150","039",0,"382","ME.png"
500,"Plymouth (MS2)","Plymouth y Brades","Montserratian","Montserratense","500","East Caribbean dollar","XCD","cent","$","Montserrat","MS","MSR","Montserrat","Montserrat","019","029",0,"1","MS.png"
504,"Rabat","Rabat","Moroccan","Marroquí","504","Moroccan dirham","MAD","centime","MAD","Kingdom of Morocco","MA","MAR","Morocco","Marruecos","002","015",0,"212","MA.png"
508,"Maputo","Maputo","Mozambican","Mozambiqueño/a","508","metical","MZN","centavo","MT","Republic of Mozambique","MZ","MOZ","Mozambique","Mozambique","002","014",0,"258","MZ.png"
512,"Muscat","Mascate","Omani","Omaní","512","Omani rial","OMR","baiza","﷼","Sultanate of Oman","OM","OMN","Oman","Omán","142","145",0,"968","OM.png"
516,"Windhoek","Windhoek","Namibian","Namibio","516","Namibian dollar","NAD","cent","$","Republic of Namibia","NA","NAM","Namibia","Namibia","002","018",0,"264","NA.png"
520,"Yaren","Yaren","Nauruan","Nauruano","520","Australian dollar","AUD","cent","$","Republic of Nauru","NR","NRU","Nauru","Nauru","009","057",0,"674","NR.png"
524,"Kathmandu","Katmandú","Nepalese","Nepalí","524","Nepalese rupee","NPR","paisa (inv.)","₨","Nepal","NP","NPL","Nepal","Nepal","142","034",0,"977","NP.png"
528,"Amsterdam (NL2)","Amsterdam","Dutch","Holandés/ esa","528","euro","EUR","cent","€","Kingdom of the Netherlands","NL","NLD","Netherlands","Holanda","150","155",1,"31","NL.png"
531,"Willemstad","Willemstad","Curaçaoan","Curazoleño/a","531","Netherlands Antillean guilder (CW1)","ANG","cent","","Curaçao","CW","CUW","Curaçao","Curazao","019","029",0,"599",""
533,"Oranjestad","Oranjestad","Aruban","Arubeño/a","533","Aruban guilder","AWG","cent","ƒ","Aruba","AW","ABW","Aruba","Aruba","019","029",0,"297","AW.png"
534,"Philipsburg","Philipsburg","Sint Maartener","Sanmartinense","534","Netherlands Antillean guilder (SX1)","ANG","cent","","Sint Maarten","SX","SXM","Sint Maarten (Dutch part)","Sint Maarten","019","029",0,"721",""
535,"","","of Bonaire, Sint Eustatius and Saba","","535","US dollar","USD","cent","","","BQ","BES","Bonaire, Sint Eustatius and Saba","","019","029",0,"599",""
540,"Nouméa","Numea","New Caledonian","Neocaledonio","540","CFP franc","XPF","centime","XPF","New Caledonia","NC","NCL","New Caledonia","Nueva Caledonia","009","054",0,"687","NC.png"
548,"Port Vila","Port-Vila","Vanuatuan","Vanuatuense","548","vatu (inv.)","VUV","","Vt","Republic of Vanuatu","VU","VUT","Vanuatu","Vanuatu","009","054",0,"678","VU.png"
554,"Wellington","Wellington","New Zealander","Neozelandés","554","New Zealand dollar","NZD","cent","$","New Zealand","NZ","NZL","New Zealand","Nueva Zelandia","009","053",0,"64","NZ.png"
558,"Managua","Managua","Nicaraguan","Nicaragüense","558","córdoba oro","NIO","centavo","C$","Republic of Nicaragua","NI","NIC","Nicaragua","Nicaragua","019","013",0,"505","NI.png"
562,"Niamey","Niamey","Nigerien","Nigeriano/a","562","CFA franc (BCEAO)","XOF","centime","XOF","Republic of Niger","NE","NER","Niger","Niger","002","011",0,"227","NE.png"
566,"Abuja","Abuja","Nigerian","Nigeriano/a","566","naira (inv.)","NGN","kobo (inv.)","₦","Federal Republic of Nigeria","NG","NGA","Nigeria","Nigeria","002","011",0,"234","NG.png"
570,"Alofi","Alofi","Niuean","Niueño/a","570","New Zealand dollar","NZD","cent","$","Niue","NU","NIU","Niue","Niue","009","061",0,"683","NU.png"
574,"Kingston","Kingston","Norfolk Islander","Norfolkense","574","Australian dollar","AUD","cent","$","Territory of Norfolk Island","NF","NFK","Norfolk Island","Isla Norfolk","009","053",0,"672","NF.png"
578,"Oslo","Oslo","Norwegian","Noruego/a","578","Norwegian krone (pl. kroner)","NOK","øre (inv.)","kr","Kingdom of Norway","NO","NOR","Norway","Noruega","150","154",0,"47","NO.png"
580,"Saipan","Saipán","Northern Mariana Islander","Normariano/na","580","US dollar","USD","cent","$","Commonwealth of the Northern Mariana Islands","MP","MNP","Northern Mariana Islands","Islas Marianas del Norte","009","057",0,"1","MP.png"
581,"United States Minor Outlying Islands","---","of United States Minor Outlying Islands","Isleño/a americano/a","581","US dollar","USD","cent","$","United States Minor Outlying Islands","UM","UMI","United States Minor Outlying Islands","Islas Ultramarinas Menores de Estados Unidos","","",0,"1","UM.png"
583,"Palikir","Palikir","Micronesian","Micronesio/a","583","US dollar","USD","cent","$","Federated States of Micronesia","FM","FSM","Micronesia, Federated States of","Micronesia, Estados Federados de ","009","057",0,"691","FM.png"
584,"Majuro","Majuro","Marshallese","Marshalés","584","US dollar","USD","cent","$","Republic of the Marshall Islands","MH","MHL","Marshall Islands","Islas Marshall","009","057",0,"692","MH.png"
585,"Melekeok","Koror","Palauan","Palauano/a","585","US dollar","USD","cent","$","Republic of Palau","PW","PLW","Palau","Palau","009","057",0,"680","PW.png"
586,"Islamabad","Islamabad","Pakistani","Pakistaní","586","Pakistani rupee","PKR","paisa","₨","Islamic Republic of Pakistan","PK","PAK","Pakistan","Pakistán","142","034",0,"92","PK.png"
591,"Panama City","Ciudad de Panamá","Panamanian","Panameño/a","591","balboa","PAB","centésimo","B/.","Republic of Panama","PA","PAN","Panama","Panamá","019","013",0,"507","PA.png"
598,"Port Moresby","Port Moresby","Papua New Guinean","Papú","598","kina (inv.)","PGK","toea (inv.)","PGK","Independent State of Papua New Guinea","PG","PNG","Papua New Guinea","Papúa-Nueva Guinea","009","054",0,"675","PG.png"
600,"Asunción","Asunción","Paraguayan","Paraguayo/a","600","guaraní","PYG","céntimo","Gs","Republic of Paraguay","PY","PRY","Paraguay","Paraguay","019","005",0,"595","PY.png"
604,"Lima","Lima","Peruvian","Peruano/a","604","new sol","PEN","céntimo","S/.","Republic of Peru","PE","PER","Peru","Perú","019","005",0,"51","PE.png"
608,"Manila","Manila","Filipino","Filipino/a","608","Philippine peso","PHP","centavo","Php","Republic of the Philippines","PH","PHL","Philippines","Filipinas","142","035",0,"63","PH.png"
612,"Adamstown","Adamstown","Pitcairner","Pitcairnés/a","612","New Zealand dollar","NZD","cent","$","Pitcairn Islands","PN","PCN","Pitcairn","Islas Pitcairn","009","061",0,"649","PN.png"
616,"Warsaw","Varsovia","Polish","Polaco/a","616","zloty","PLN","grosz (pl. groszy)","zł","Republic of Poland","PL","POL","Poland","Polonia","150","151",1,"48","PL.png"
620,"Lisbon","Lisboa","Portuguese","Portugués/esa","620","euro","EUR","cent","€","Portuguese Republic","PT","PRT","Portugal","Portugal","150","039",1,"351","PT.png"
624,"Bissau","Bissau","Guinea-Bissau national","Guineano/a","624","CFA franc (BCEAO)","XOF","centime","XOF","Republic of Guinea-Bissau","GW","GNB","Guinea-Bissau","Guinea Bissau","002","011",0,"245","GW.png"
626,"Dili","Dili","East Timorese","Timorense","626","US dollar","USD","cent","$","Democratic Republic of East Timor","TL","TLS","Timor-Leste","Timor Oriental","142","035",0,"670","TL.png"
630,"San Juan","San Juan","Puerto Rican","Portorriqueño/a","630","US dollar","USD","cent","$","Commonwealth of Puerto Rico","PR","PRI","Puerto Rico","Puerto Rico","019","029",0,"1","PR.png"
634,"Doha","Doha","Qatari","Catarí","634","Qatari riyal","QAR","dirham","﷼","State of Qatar","QA","QAT","Qatar","Catar","142","145",0,"974","QA.png"
638,"Saint-Denis","Saint-Denis","Reunionese","Reunionés/sa","638","euro","EUR","cent","€","Réunion","RE","REU","Réunion","Reunión","002","014",0,"262","RE.png"
642,"Bucharest","Bucarest","Romanian","Rumano/a","642","Romanian leu (pl. lei)","RON","ban (pl. bani)","lei","Romania","RO","ROU","Romania","Rumania","150","151",1,"40","RO.png"
643,"Moscow","Moscú","Russian","Ruso/a","643","Russian rouble","RUB","kopek","руб","Russian Federation","RU","RUS","Russian Federation","Rusia","150","151",0,"7","RU.png"
646,"Kigali","Kigali","Rwandan; Rwandese","Ruandés","646","Rwandese franc","RWF","centime","RWF","Republic of Rwanda","RW","RWA","Rwanda","Ruanda","002","014",0,"250","RW.png"
652,"Gustavia","Gustavia","of Saint Barthélemy","Francés","652","euro","EUR","cent","","Collectivity of Saint Barthélemy","BL","BLM","Saint Barthélemy","San Bartolomé","019","029",0,"590",""
654,"Jamestown","Jamestown","Saint Helenian","Santaheleno, -a","654","Saint Helena pound","SHP","penny","£","Saint Helena, Ascension and Tristan da Cunha","SH","SHN","Saint Helena, Ascension and Tristan da Cunha","Santa Elena, Ascensión y Tristán de Acuña","002","011",0,"290","SH.png"
659,"Basseterre","Basseterre","Kittsian; Nevisian","Sancristobalense","659","East Caribbean dollar","XCD","cent","$","Federation of Saint Kitts and Nevis","KN","KNA","Saint Kitts and Nevis","San Cristóbal y Nieves","019","029",0,"1","KN.png"
660,"The Valley","El Valle","Anguillan","Anguilense","660","East Caribbean dollar","XCD","cent","$","Anguilla","AI","AIA","Anguilla","Anguila","019","029",0,"1","AI.png"
662,"Castries","Castries","Saint Lucian","Santalucense","662","East Caribbean dollar","XCD","cent","$","Saint Lucia","LC","LCA","Saint Lucia","Santa Lucía","019","029",0,"1","LC.png"
663,"Marigot","Marigot","of Saint Martin","Sanmartinense","663","euro","EUR","cent","","Collectivity of Saint Martin","MF","MAF","Saint Martin (French part)","Isla de San Martín","019","029",0,"590",""
666,"Saint-Pierre","San Pedro","St-Pierrais; Miquelonnais","Sanpedrino/a","666","euro","EUR","cent","€","Territorial Collectivity of Saint Pierre and Miquelon","PM","SPM","Saint Pierre and Miquelon","San Pedro y Miquelón","019","021",0,"508","PM.png"
670,"Kingstown","Kingstown","Vincentian","Sanvicentino/a","670","East Caribbean dollar","XCD","cent","$","Saint Vincent and the Grenadines","VC","VCT","Saint Vincent and the Grenadines","San Vicente y Granadinas","019","029",0,"1","VC.png"
674,"San Marino","San Marino","San Marinese","Sanmarinense","674","euro","EUR ","cent","€","Republic of San Marino","SM","SMR","San Marino","San Marino","150","039",0,"378","SM.png"
678,"São Tomé","Santo Tomé","São Toméan","Santotomense","678","dobra","STD","centavo","Db","Democratic Republic of São Tomé and Príncipe","ST","STP","Sao Tome and Principe","Santo Tomé y Príncipe","002","017",0,"239","ST.png"
682,"Riyadh","Riad","Saudi Arabian","Saudí","682","riyal","SAR","halala","﷼","Kingdom of Saudi Arabia","SA","SAU","Saudi Arabia","Arabia Saudita","142","145",0,"966","SA.png"
686,"Dakar","Dakar","Senegalese","Senegalés","686","CFA franc (BCEAO)","XOF","centime","XOF","Republic of Senegal","SN","SEN","Senegal","Senegal","002","011",0,"221","SN.png"
688,"Belgrade","Belgrado","Serb","Serbio/a","688","Serbian dinar","RSD","para (inv.)","","Republic of Serbia","RS","SRB","Serbia","Serbia","150","039",0,"381",""
690,"Victoria","Victoria","Seychellois","Seychelense","690","Seychelles rupee","SCR","cent","₨","Republic of Seychelles","SC","SYC","Seychelles","Seychelles","002","014",0,"248","SC.png"
694,"Freetown","Freetown","Sierra Leonean","Sierraleonés","694","leone","SLL","cent","Le","Republic of Sierra Leone","SL","SLE","Sierra Leone","Sierra Leona","002","011",0,"232","SL.png"
702,"Singapore","Ciudad de Singapur","Singaporean","Singapurense","702","Singapore dollar","SGD","cent","$","Republic of Singapore","SG","SGP","Singapore","Singapur","142","035",0,"65","SG.png"
703,"Bratislava","Bratislava","Slovak","Eslovaco/a","703","euro","EUR","cent","Sk","Slovak Republic","SK","SVK","Slovakia","Eslovaquia","150","151",1,"421","SK.png"
704,"Hanoi","Hanói","Vietnamese","Vietnamita","704","dong","VND","(10 hào","₫","Socialist Republic of Vietnam","VN","VNM","Viet Nam","Vietnam","142","035",0,"84","VN.png"
705,"Ljubljana","Liubliana","Slovene","Esloveno/a","705","euro","EUR","cent","€","Republic of Slovenia","SI","SVN","Slovenia","Eslovenia","150","039",1,"386","SI.png"
706,"Mogadishu","Mogadiscio","Somali","Somalí","706","Somali shilling","SOS","cent","S","Somali Republic","SO","SOM","Somalia","Somalia","002","014",0,"252","SO.png"
710,"Pretoria (ZA1)","Ciudad del Cabo","South African","Sudafricano/a","710","rand","ZAR","cent","R","Republic of South Africa","ZA","ZAF","South Africa","Sudáfrica","002","018",0,"27","ZA.png"
716,"Harare","Harare","Zimbabwean","Zimbabuense","716","Zimbabwe dollar (ZW1)","ZWL","cent","Z$","Republic of Zimbabwe","ZW","ZWE","Zimbabwe","Zimbabwe","002","014",0,"263","ZW.png"
724,"Madrid","Madrid","Spaniard","Español/a","724","euro","EUR","cent","€","Kingdom of Spain","ES","ESP","Spain","España","150","039",1,"34","ES.png"
728,"Juba","Yuba","South Sudanese","Sursudanés/esa","728","South Sudanese pound","SSP","piaster","","Republic of South Sudan","SS","SSD","South Sudan","Sudán del Sur","002","015",0,"211",""
729,"Khartoum","Jartum","Sudanese","Sudanés","729","Sudanese pound","SDG","piastre","","Republic of the Sudan","SD","SDN","Sudan","Sudán","002","015",0,"249",""
732,"Al aaiun","","Sahrawi","","732","Moroccan dirham","MAD","centime","MAD","Western Sahara","EH","ESH","Western Sahara","","002","015",0,"212","EH.png"
740,"Paramaribo","Paramaribo","Surinamese","Surinamés","740","Surinamese dollar","SRD","cent","$","Republic of Suriname","SR","SUR","Suriname","Surinam","019","005",0,"597","SR.png"
744,"Longyearbyen","","of Svalbard","","744","Norwegian krone (pl. kroner)","NOK","øre (inv.)","kr","Svalbard and Jan Mayen","SJ","SJM","Svalbard and Jan Mayen","","150","154",0,"47","SJ.png"
748,"Mbabane","Mbabane","Swazi","Suazi","748","lilangeni","SZL","cent","SZL","Kingdom of Swaziland","SZ","SWZ","Swaziland","Suazilandia","002","018",0,"268","SZ.png"
752,"Stockholm","Estocolmo","Swedish","Sueco/a","752","krona (pl. kronor)","SEK","öre (inv.)","kr","Kingdom of Sweden","SE","SWE","Sweden","Suecia","150","154",1,"46","SE.png"
756,"Berne","Berna","Swiss","Suizo/a","756","Swiss franc","CHF","centime","CHF","Swiss Confederation","CH","CHE","Switzerland","Suiza","150","155",0,"41","CH.png"
760,"Damascus","Damasco","Syrian","Sirio/a","760","Syrian pound","SYP","piastre","£","Syrian Arab Republic","SY","SYR","Syrian Arab Republic","Siria","142","145",0,"963","SY.png"
762,"Dushanbe","Dushanbe","Tajik","Tadzhik","762","somoni","TJS","diram","TJS","Republic of Tajikistan","TJ","TJK","Tajikistan","Tadzhikistán","142","143",0,"992","TJ.png"
764,"Bangkok","Bangkok","Thai","Tailandés/esa","764","baht (inv.)","THB","satang (inv.)","฿","Kingdom of Thailand","TH","THA","Thailand","Tailandia","142","035",0,"66","TH.png"
768,"Lomé","Lomé","Togolese","Togolés","768","CFA franc (BCEAO)","XOF","centime","XOF","Togolese Republic","TG","TGO","Togo","Togo","002","011",0,"228","TG.png"
772,"(TK2)","Atafu","Tokelauan","Tokelauano/a","772","New Zealand dollar","NZD","cent","$","Tokelau","TK","TKL","Tokelau","Tokelau","009","061",0,"690","TK.png"
776,"Nuku’alofa","Nukualofa","Tongan","Tongano","776","pa’anga (inv.)","TOP","seniti (inv.)","T$","Kingdom of Tonga","TO","TON","Tonga","Tonga","009","061",0,"676","TO.png"
780,"Port of Spain","Puerto de España","Trinidadian; Tobagonian","Trinitario/a","780","Trinidad and Tobago dollar","TTD","cent","TT$","Republic of Trinidad and Tobago","TT","TTO","Trinidad and Tobago","Trinidad y Tobago","019","029",0,"1","TT.png"
784,"Abu Dhabi","Abu Dabi","Emirian","Emiratí","784","UAE dirham","AED","fils (inv.)","AED","United Arab Emirates","AE","ARE","United Arab Emirates","Emiratos Árabes Unidos","142","145",0,"971","AE.png"
788,"Tunis","Túnez","Tunisian","Tunecino/a","788","Tunisian dinar","TND","millime","TND","Republic of Tunisia","TN","TUN","Tunisia","Tunicia","002","015",0,"216","TN.png"
792,"Ankara","Ankara","Turk","Turco/ca","792","Turkish lira (inv.)","TRY","kurus (inv.)","₺","Republic of Turkey","TR","TUR","Turkey","Turquía","142","145",0,"90","TR.png"
795,"Ashgabat","Ashgabat","Turkmen","Turcomano","795","Turkmen manat (inv.)","TMT","tenge (inv.)","m","Turkmenistan","TM","TKM","Turkmenistan","Turkmenistán","142","143",0,"993","TM.png"
796,"Cockburn Town","Cockburn Town","Turks and Caicos Islander","Turcocaiqueño/a","796","US dollar","USD","cent","$","Turks and Caicos Islands","TC","TCA","Turks and Caicos Islands","Islas Turcas y Caicos","019","029",0,"1","TC.png"
798,"Funafuti","Funafuti","Tuvaluan","Tuvaluano/a","798","Australian dollar","AUD","cent","$","Tuvalu","TV","TUV","Tuvalu","Tuvalu","009","061",0,"688","TV.png"
800,"Kampala","Kampala","Ugandan","Ugandés","800","Uganda shilling","UGX","cent","UGX","Republic of Uganda","UG","UGA","Uganda","Uganda","002","014",0,"256","UG.png"
804,"Kiev","Kiev","Ukrainian","Ucraniano/a","804","hryvnia","UAH","kopiyka","₴","Ukraine","UA","UKR","Ukraine","Ucrania","150","151",0,"380","UA.png"
807,"Skopje","Skopje","of the former Yugoslav Republic of Macedonia","Macedonio/a","807","denar (pl. denars)","MKD","deni (inv.)","ден","the former Yugoslav Republic of Macedonia","MK","MKD","Macedonia, the former Yugoslav Republic of","Macedonia","150","039",0,"389","MK.png"
818,"Cairo","El Cairo","Egyptian","Egipcio/a","818","Egyptian pound","EGP","piastre","£","Arab Republic of Egypt","EG","EGY","Egypt","Egipto","002","015",0,"20","EG.png"
826,"London","Londres","British","Británico/a","826","pound sterling","GBP","penny (pl. pence)","£","United Kingdom of Great Britain and Northern Ireland","GB","GBR","United Kingdom","Reino Unido","150","154",1,"44","GB.png"
831,"St Peter Port","Saint Peter Port","of Guernsey","Guernsey","831","Guernsey pound (GG2)","GGP (GG2)","penny (pl. pence)","","Bailiwick of Guernsey","GG","GGY","Guernsey","Guernsey","150","154",0,"44",""
832,"St Helier","Saint Helier","of Jersey","Jersiais","832","Jersey pound (JE2)","JEP (JE2)","penny (pl. pence)","","Bailiwick of Jersey","JE","JEY","Jersey","Jersey","150","154",0,"44",""
833,"Douglas","Douglas       ","Manxman; Manxwoman","Manés/esa","833","Manx pound (IM2)","IMP (IM2)","penny (pl. pence)","","Isle of Man","IM","IMN","Isle of Man","Isla de Man","150","154",0,"44",""
834,"Dodoma (TZ1)","Dodoma","Tanzanian","Tanzano","834","Tanzanian shilling","TZS","cent","TZS","United Republic of Tanzania","TZ","TZA","Tanzania, United Republic of","Tanzania","002","014",0,"255","TZ.png"
840,"Washington DC","Washington D.C","American","Estadounidense","840","US dollar","USD","cent","$","United States of America","US","USA","United States","Estados Unidos","019","021",0,"1","US.png"
850,"Charlotte Amalie","Charlotte Amalie","US Virgin Islander","De Islas Vírgenes","850","US dollar","USD","cent","$","United States Virgin Islands","VI","VIR","Virgin Islands, U.S.","Islas Vírgenes Americanas","019","029",0,"1","VI.png"
854,"Ouagadougou","Uagadugú","Burkinabe","Burkinés","854","CFA franc (BCEAO)","XOF","centime","XOF","Burkina Faso","BF","BFA","Burkina Faso","Burkina Faso","002","011",0,"226","BF.png"
858,"Montevideo","Montevideo","Uruguayan","Uruguayo/a","858","Uruguayan peso","UYU","centésimo","$U","Eastern Republic of Uruguay","UY","URY","Uruguay","Uruguay","019","005",0,"598","UY.png"
860,"Tashkent","Tashkent","Uzbek","Uzbeko","860","sum (inv.)","UZS","tiyin (inv.)","лв","Republic of Uzbekistan","UZ","UZB","Uzbekistan","Uzbekistán","142","143",0,"998","UZ.png"
862,"Caracas","Caracas","Venezuelan","Venezolano/a","862","bolívar fuerte (pl. bolívares fuertes)","VEF","céntimo","Bs","Bolivarian Republic of Venezuela","VE","VEN","Venezuela, Bolivarian Republic of","Venezuela","019","005",0,"58","VE.png"
876,"Mata-Utu","Mata-Utu","Wallisian; Futunan; Wallis and Futuna Islander","Walisiano/na","876","CFP franc","XPF","centime","XPF","Wallis and Futuna","WF","WLF","Wallis and Futuna","Wallis y Futuna","009","061",0,"681","WF.png"
882,"Apia","Apia","Samoan","Samoano/a","882","tala (inv.)","WST","sene (inv.)","WS$","Independent State of Samoa","WS","WSM","Samoa","Samoa","009","061",0,"685","WS.png"
887,"San’a","Saná","Yemenite","Yemení","887","Yemeni rial","YER","fils (inv.)","﷼","Republic of Yemen","YE","YEM","Yemen","Yemen","142","145",0,"967","YE.png"
894,"Lusaka","Lusaka","Zambian","Zambiano","894","Zambian kwacha (inv.)","ZMW","ngwee (inv.)","ZK","Republic of Zambia","ZM","ZMB","Zambia ","Zambia","002","014",0,"260","ZM.png"
